{
  "type": "origins:toggle_night_vision",
  "strength": 1.0,
  "condition": {
    "type": "origins:submerged_in",
    "fluid": "minecraft:water"
  },
  "active_by_default": true,
  "key": {
    "key": "m",
    "continuous": false
  }
}